{
	"id": "f4831e23-2c1b-4d66-e3a4-8ae8b6ea1f9c",
	"name": "TestBackend",
	"description": "",
	"order": [
		"44548844-08bb-f99d-6997-4282a3fe8758",
		"dcf5aa79-8d75-26e8-91b8-20759af1c9d2",
		"ae81ff19-060a-108e-6e81-3ba367a62b34"
	],
	"folders": [],
	"folders_order": [],
	"timestamp": 1529426445818,
	"owner": "4645703",
	"public": false,
	"requests": [
		{
			"id": "44548844-08bb-f99d-6997-4282a3fe8758",
			"headers": "Content-Type: application/json\nAuthorization: Bearer eyJhbGciOiJIUzUxMiJ9.eyJzdWIiOiJCQVkifQ.e9fEW-qFgQqHaeufReMQLrIBNz8ZAuleClWINULFMWk_XS36RrH0abGcRQmHTSgA1vlPLSi-1V8JT-Al10Ea5Q\n",
			"headerData": [
				{
					"key": "Content-Type",
					"value": "application/json",
					"description": "",
					"enabled": true
				},
				{
					"key": "Authorization",
					"value": "Bearer eyJhbGciOiJIUzUxMiJ9.eyJzdWIiOiJCQVkifQ.e9fEW-qFgQqHaeufReMQLrIBNz8ZAuleClWINULFMWk_XS36RrH0abGcRQmHTSgA1vlPLSi-1V8JT-Al10Ea5Q",
					"description": "",
					"enabled": true
				}
			],
			"url": "http://localhost:8080/api/user/register",
			"queryParams": [],
			"preRequestScript": null,
			"pathVariables": {},
			"pathVariableData": [],
			"method": "POST",
			"data": [],
			"dataMode": "raw",
			"version": 2,
			"tests": null,
			"currentHelper": "normal",
			"helperAttributes": {},
			"time": 1529509880043,
			"name": "Register",
			"description": "",
			"collectionId": "f4831e23-2c1b-4d66-e3a4-8ae8b6ea1f9c",
			"responses": [],
			"rawModeData": "{\"username\":\"krachan\",\"password\":\"abcd1234\",\"firstName\":\"rachan\",\"lastName\":\"khaewphet\",\"gender\":null,\"address\":\"Pathumthani\",\"mobile\":\"0815433112\",\"salary\":16000}"
		},
		{
			"id": "ae81ff19-060a-108e-6e81-3ba367a62b34",
			"headers": "Authorization: Bearer eyJhbGciOiJIUzUxMiJ9.eyJzdWIiOiJCQVkifQ.e9fEW-qFgQqHaeufReMQLrIBNz8ZAuleClWINULFMWk_XS36RrH0abGcRQmHTSgA1vlPLSi-1V8JT-Al10Ea5Q\n",
			"headerData": [
				{
					"key": "Authorization",
					"value": "Bearer eyJhbGciOiJIUzUxMiJ9.eyJzdWIiOiJCQVkifQ.e9fEW-qFgQqHaeufReMQLrIBNz8ZAuleClWINULFMWk_XS36RrH0abGcRQmHTSgA1vlPLSi-1V8JT-Al10Ea5Q",
					"description": "",
					"enabled": true
				}
			],
			"url": "http://localhost:8080/api/user/krachan",
			"queryParams": [],
			"preRequestScript": null,
			"pathVariables": {},
			"pathVariableData": [],
			"method": "GET",
			"data": null,
			"dataMode": "params",
			"tests": null,
			"currentHelper": "normal",
			"helperAttributes": {},
			"time": 1529510111510,
			"name": "GetUser",
			"description": "",
			"collectionId": "f4831e23-2c1b-4d66-e3a4-8ae8b6ea1f9c",
			"responses": []
		},
		{
			"id": "dcf5aa79-8d75-26e8-91b8-20759af1c9d2",
			"headers": "Content-Type: application/json\n",
			"headerData": [
				{
					"key": "Content-Type",
					"value": "application/json",
					"description": "",
					"enabled": true
				}
			],
			"url": "http://localhost:8080/api/authen",
			"queryParams": [],
			"pathVariables": {},
			"pathVariableData": [],
			"preRequestScript": null,
			"method": "POST",
			"collectionId": "f4831e23-2c1b-4d66-e3a4-8ae8b6ea1f9c",
			"data": [],
			"dataMode": "raw",
			"name": "Authenticate",
			"description": "",
			"descriptionFormat": "html",
			"time": 1529490322561,
			"version": 2,
			"responses": [],
			"tests": null,
			"currentHelper": "normal",
			"helperAttributes": {},
			"rawModeData": "{\"username\":\"BAYAPP453\",\"password\":\"P@ssW0rd\"}"
		}
	]
}